…
``` r
variable_description <- read_excel("/Users/kelvinacebron/Documents/SERC NASA ROSES grant /03 Data/NGEE - T Panama Dataset/NGT0039_2016_Panama_DiurnalGasEx_v2_20220506205826/2016ENSO_Panama_DiurnalGasEx_v2.xlsx", sheet = "DCD")
```

    ## New names:
    ## • `` -> `...3`

``` r
print(variable_description)
```

    ## # A tibble: 67 × 3
    ##    Number_Header_Rows    `1`                                         ...3       
    ##    <chr>                 <chr>                                       <chr>      
    ##  1 ColumnName_Row_Number 1                                           <NA>       
    ##  2 Column_Delimiter      na                                          <NA>       
    ##  3 Datafile_ColumnName   Datafile_Measure                            Datafile_U…
    ##  4 YYYYMMDD              Measurement date                            numeric    
    ##  5 HHMMSS                Measurement local time                      numeric    
    ##  6 machine_name          Licor 6400XT instrument name                text       
    ##  7 serial                Licor 6400XT instrument serial number       alphanumer…
    ##  8 Location              Canopy crane location                       text       
    ##  9 Time Point            Relative time of measurement throughout day integer    
    ## 10 Species               STRI species code                           alphanumer…
    ## # … with 57 more rows
2.  Changing time from character format to timestamp

``` r
ENSO_Panama_DiurnalGasEx$datetime <- as.POSIXlt(strptime(paste(ENSO_Panama_DiurnalGasEx$YYYYMMDD, " ", ENSO_Panama_DiurnalGasEx$HHMMSS), "%Y%m%d %H:%M:%S"))
```

3.  Removing non-alphanumeric characters from the column names
    (Important in succeeding operations)

``` r
names(ENSO_Panama_DiurnalGasEx) <- gsub(x = names(ENSO_Panama_DiurnalGasEx), pattern = "/", replacement = '.')
print(ENSO_Panama_DiurnalGasEx)
```

    ## # A tibble: 781 × 65
    ##    YYYYMMDD HHMMSS   machine_name serial   Location `Time Point` Species
    ##       <dbl> <chr>    <chr>        <chr>    <chr>    <chr>        <chr>  
    ##  1 20160213 06:58:52 Bernie       PSC-3613 PA-PNM   1            CASTEL 
    ##  2 20160213 07:01:52 Bernie       PSC-3613 PA-PNM   1            CASTEL 
    ##  3 20160213 07:04:43 Bernie       PSC-3613 PA-PNM   1            CASTEL 
    ##  4 20160213 07:09:02 Bernie       PSC-3613 PA-PNM   1            LUEHSE 
    ##  5 20160213 07:11:08 Bernie       PSC-3613 PA-PNM   1            LUEHSE 
    ##  6 20160213 07:14:08 Bernie       PSC-3613 PA-PNM   1            LUEHSE 
    ##  7 20160213 07:19:31 Bernie       PSC-3613 PA-PNM   1            ANACEX 
    ##  8 20160213 07:22:17 Bernie       PSC-3613 PA-PNM   1            ANACEX 
    ##  9 20160213 07:24:43 Bernie       PSC-3613 PA-PNM   1            ANACEX 
    ## 10 20160213 07:31:30 Bernie       PSC-3613 PA-PNM   1            CORDAL 
    ## # … with 771 more rows, and 58 more variables: Leaf_Barcode <chr>, Obs <dbl>,
    ## #   Tleaf <dbl>, Photo <dbl>, Ci <dbl>, CO2S <dbl>, VpdA <dbl>, RH_S <dbl>,
    ## #   Tair <dbl>, PARi <dbl>, Press <dbl>, Cond <dbl>, BLCond <dbl>,
    ## #   Trmmol <dbl>, FTime <dbl>, `EBal?` <dbl>, VpdL <dbl>, CTleaf <dbl>,
    ## #   Area <dbl>, BLC_1 <dbl>, StmRat <dbl>, TBlk <dbl>, CO2R <dbl>, H2OR <dbl>,
    ## #   H2OS <dbl>, RH_R <dbl>, Flow <dbl>, PARo <dbl>, CsMch <dbl>, HsMch <dbl>,
    ## #   StableF <dbl>, BLCslope <dbl>, BLCoffst <dbl>, f_parin <dbl>, …
…
    ## `summarise()` has grouped output by 'Species'. You can override using the
    ## `.groups` argument.

``` r
Species_BBmodels
```

    ## # A tibble: 36 × 6
    ## # Groups:   Species [18]
    ##    Species term        estimate std.error statistic      p.value
    ##    <chr>   <chr>          <dbl>     <dbl>     <dbl>        <dbl>
    ##  1 ALBIAD  (Intercept)   0.125     0.0359     3.48  0.00121     
    ##  2 ALBIAD  AHs.Cs        2.65      1.43       1.85  0.0717      
    ##  3 ANACEX  (Intercept)   0.0325    0.0169     1.92  0.0617      
    ##  4 ANACEX  AHs.Cs        1.05      1.91       0.552 0.584       
    ##  5 ANTITR  (Intercept)   0.112     0.0439     2.55  0.0145      
    ##  6 ANTITR  AHs.Cs        3.48      2.37       1.47  0.150       
    ##  7 APEIME  (Intercept)  -0.0279    0.0359    -0.776 0.443       
    ##  8 APEIME  AHs.Cs       11.1       1.48       7.48  0.0000000165
    ##  9 CAL2CA  (Intercept)   0.0418    0.0158     2.65  0.0114      
    ## 10 CAL2CA  AHs.Cs        5.11      1.21       4.22  0.000132    
    ## # … with 26 more rows
…
